{
	"data": [
		{
			"id": 1,
			"nome":"claudio",
			"pedido": "pedido 01",
			"status":0,
			"pagamento":0,
			"periodo":"20/02/2017",
			"uri":1
		},
		{
			"id": 2,
			"nome":"joao da silva",
			"pedido": "pedido 01",
			"status":0,
			"pagamento":0,
			"periodo":"20/02/2017",
			"periodo":"20/02/2017",
			"uri":2
		},
		{
			"id": 3,
			"nome":"joao da silva",
			"pedido": "pedido 01",
			"status":0,
			"pagamento":1,
			"periodo":"20/02/1980",
			"uri":3
		},
		{
			"id": 4,
			"nome":"joao da silva",
			"pedido": "pedido 01",
			"status":1,
			"pagamento":1,
			"periodo":"20/02/2017",
			"uri":4
		},
		{
			"id": 5,
			"nome":"joao da silva",
			"pedido": "pedido 01",
			"status":1,
			"pagamento":1,
			"periodo":"20/02/2000",
			"uri":5
		},
		{
			"id": 6,
			"nome":"joao da silva",
			"pedido": "pedido 01",
			"status":0,
			"pagamento":1,
			"periodo":"20/02/2000",
			"uri":6
		},
		{
			"id": 7,
			"nome":"joao da silva",
			"pedido": "pedido 01",
			"status":0,
			"pagamento":1,
			"periodo":"20/04/2017",
			"uri":7
		},
		{
			"id": 8,
			"nome":"joao da silva",
			"pedido": "pedido 01",
			"status":1,
			"pagamento":0,
			"periodo":"20/10/2017",
			"uri":8
		},
		{
			"id": 9,
			"nome":"joao da silva",
			"pedido": "pedido 01",
			"status":1,
			"pagamento":1,
			"periodo":"20/02/2018",
			"uri":9
		},
		{
			"id": 10,
			"nome":"joao da silva",
			"pedido": "pedido 01",
			"status":1,
			"pagamento":1,
			"periodo":"20/02/2018",
			"uri":10
		},
		{
			"id": 11,
			"nome":"joao da silva",
			"pedido": "pedido 01",
			"status":1,
			"pagamento":0,
			"periodo":"20/02/2017",
			"uri":11
		},
		{
			"id": 12,
			"nome":"joao da silva",
			"pedido": "pedido 01",
			"status":1,
			"pagamento":1,
			"periodo":"20/10/2017",
			"uri":12
		},
		{
			"id": 13,
			"nome":"joao da silva",
			"pedido": "pedido 01",
			"status":1,
			"pagamento":1,
			"periodo":"20/11/2017",
			"uri":13
		}
	],"count":200
}